R for Data Science
…
This site is to play with the Rmarkdown platform more using the code and data from R for Data Science by Hadley Wickman and Garrett Grolemund.

Data Visulzation

The package I am using for ggplots2 and dyplr.

library(tidyverse)

Chapter one

First set of data.

mpg

## # A tibble: 234 x 11
##    manufacturer      model displ  year   cyl      trans   drv   cty   hwy
##           <chr>      <chr> <dbl> <int> <int>      <chr> <chr> <int> <int>
##  1         audi         a4   1.8  1999     4   auto(l5)     f    18    29
##  2         audi         a4   1.8  1999     4 manual(m5)     f    21    29
##  3         audi         a4   2.0  2008     4 manual(m6)     f    20    31
##  4         audi         a4   2.0  2008     4   auto(av)     f    21    30
##  5         audi         a4   2.8  1999     6   auto(l5)     f    16    26
##  6         audi         a4   2.8  1999     6 manual(m5)     f    18    26
##  7         audi         a4   3.1  2008     6   auto(av)     f    18    27
##  8         audi a4 quattro   1.8  1999     4 manual(m5)     4    18    26
##  9         audi a4 quattro   1.8  1999     4   auto(l5)     4    16    25
## 10         audi a4 quattro   2.0  2008     4 manual(m6)     4    20    28
## # ... with 224 more rows, and 2 more variables: fl <chr>, class <chr>
…
#the smooth line now only is based off of the subcompact car class

Chapter Two

Second set of data

diamonds

## # A tibble: 53,940 x 10
##    carat       cut color clarity depth table price     x     y     z
##    <dbl>     <ord> <ord>   <ord> <dbl> <dbl> <int> <dbl> <dbl> <dbl>
##  1  0.23     Ideal     E     SI2  61.5    55   326  3.95  3.98  2.43
##  2  0.21   Premium     E     SI1  59.8    61   326  3.89  3.84  2.31
##  3  0.23      Good     E     VS1  56.9    65   327  4.05  4.07  2.31
##  4  0.29   Premium     I     VS2  62.4    58   334  4.20  4.23  2.63
##  5  0.31      Good     J     SI2  63.3    58   335  4.34  4.35  2.75
##  6  0.24 Very Good     J    VVS2  62.8    57   336  3.94  3.96  2.48
##  7  0.24 Very Good     I    VVS1  62.3    57   336  3.95  3.98  2.47
##  8  0.26 Very Good     H     SI1  61.9    55   337  4.07  4.11  2.53
##  9  0.22      Fair     E     VS2  65.1    61   337  3.87  3.78  2.49
## 10  0.23 Very Good     H     VS1  59.4    61   338  4.00  4.05  2.39
## # ... with 53,930 more rows
…
#makes a box plot of class compared to highway milage, coord_flip() flips the axis

Data Transformation

Note that teh veiw() command will not open a window in the browser, but in Rstudio it will open a seprate window to veiw all of the data. ###Chapter Three Use this package for the dataset that will be used

library(nycflights13)

The data set shown in table format two different ways

nycflights13::flights

## # A tibble: 336,776 x 19
##     year month   day dep_time sched_dep_time dep_delay arr_time
##    <int> <int> <int>    <int>          <int>     <dbl>    <int>
##  1  2013     1     1      517            515         2      830
##  2  2013     1     1      533            529         4      850
##  3  2013     1     1      542            540         2      923
##  4  2013     1     1      544            545        -1     1004
##  5  2013     1     1      554            600        -6      812
##  6  2013     1     1      554            558        -4      740
##  7  2013     1     1      555            600        -5      913
##  8  2013     1     1      557            600        -3      709
##  9  2013     1     1      557            600        -3      838
## 10  2013     1     1      558            600        -2      753
## # ... with 336,766 more rows, and 12 more variables: sched_arr_time <int>,
## #   arr_delay <dbl>, carrier <chr>, flight <int>, tailnum <chr>,
## #   origin <chr>, dest <chr>, air_time <dbl>, distance <dbl>, hour <dbl>,
## #   minute <dbl>, time_hour <dttm>

#our data set

View(flights)
#opens a window so you can see all the data not just an example 

Some examples of the filter command

filter(flights, month == 1, day == 1)

## # A tibble: 842 x 19
##     year month   day dep_time sched_dep_time dep_delay arr_time
##    <int> <int> <int>    <int>          <int>     <dbl>    <int>
##  1  2013     1     1      517            515         2      830
##  2  2013     1     1      533            529         4      850
##  3  2013     1     1      542            540         2      923
##  4  2013     1     1      544            545        -1     1004
##  5  2013     1     1      554            600        -6      812
##  6  2013     1     1      554            558        -4      740
##  7  2013     1     1      555            600        -5      913
##  8  2013     1     1      557            600        -3      709
##  9  2013     1     1      557            600        -3      838
## 10  2013     1     1      558            600        -2      753
## # ... with 832 more rows, and 12 more variables: sched_arr_time <int>,
## #   arr_delay <dbl>, carrier <chr>, flight <int>, tailnum <chr>,
## #   origin <chr>, dest <chr>, air_time <dbl>, distance <dbl>, hour <dbl>,
## #   minute <dbl>, time_hour <dttm>

#filters the data by first month first day only

(jan1 <- filter(flights, month == 1, day == 1))

## # A tibble: 842 x 19
##     year month   day dep_time sched_dep_time dep_delay arr_time
##    <int> <int> <int>    <int>          <int>     <dbl>    <int>
##  1  2013     1     1      517            515         2      830
##  2  2013     1     1      533            529         4      850
##  3  2013     1     1      542            540         2      923
##  4  2013     1     1      544            545        -1     1004
##  5  2013     1     1      554            600        -6      812
##  6  2013     1     1      554            558        -4      740
##  7  2013     1     1      555            600        -5      913
##  8  2013     1     1      557            600        -3      709
##  9  2013     1     1      557            600        -3      838
## 10  2013     1     1      558            600        -2      753
## # ... with 832 more rows, and 12 more variables: sched_arr_time <int>,
## #   arr_delay <dbl>, carrier <chr>, flight <int>, tailnum <chr>,
## #   origin <chr>, dest <chr>, air_time <dbl>, distance <dbl>, hour <dbl>,
## #   minute <dbl>, time_hour <dttm>
…
nov_dec <- filter(flights, month %in% c(11, 12))
#assigns all of the nov and dec flights into a table

View(nov_dec)
#test to see that it does

Some examples of arrange command

View(arrange(flights, year, month, day))
#arranges from low to high by year, month, and day

arrange(flights, desc(arr_delay))

## # A tibble: 336,776 x 19
##     year month   day dep_time sched_dep_time dep_delay arr_time
##    <int> <int> <int>    <int>          <int>     <dbl>    <int>
##  1  2013     1     9      641            900      1301     1242
##  2  2013     6    15     1432           1935      1137     1607
##  3  2013     1    10     1121           1635      1126     1239
##  4  2013     9    20     1139           1845      1014     1457
##  5  2013     7    22      845           1600      1005     1044
##  6  2013     4    10     1100           1900       960     1342
##  7  2013     3    17     2321            810       911      135
##  8  2013     7    22     2257            759       898      121
##  9  2013    12     5      756           1700       896     1058
## 10  2013     5     3     1133           2055       878     1250
## # ... with 336,766 more rows, and 12 more variables: sched_arr_time <int>,
## #   arr_delay <dbl>, carrier <chr>, flight <int>, tailnum <chr>,
## #   origin <chr>, dest <chr>, air_time <dbl>, distance <dbl>, hour <dbl>,
## #   minute <dbl>, time_hour <dttm>

#aranges from high to low the delay, note na or no vaule data points are moved to the end

Some examples of select command

select(flights, year, month, day)

## # A tibble: 336,776 x 3
##     year month   day
##    <int> <int> <int>
##  1  2013     1     1
##  2  2013     1     1
##  3  2013     1     1
##  4  2013     1     1
##  5  2013     1     1
##  6  2013     1     1
##  7  2013     1     1
##  8  2013     1     1
##  9  2013     1     1
## 10  2013     1     1
## # ... with 336,766 more rows

#selects only certain columns, can use for example (year:day) all columns between two columns or -(year:day) to
#selects everything but the columns you specifiy in this example day, month, and year
#select also uses common string functions like contains, starts_with, etc.

flights_sml <- select(flights, year:day, ends_with("delay"), distance, air_time)
#makes a sample set of day, month, year, all delay sets, distance, and air time

Some examples of mutate command

mutate(flights_sml, gain = arr_delay - dep_delay, speed = distance / air_time * 60)

## # A tibble: 336,776 x 9
##     year month   day dep_delay arr_delay distance air_time  gain    speed
##    <int> <int> <int>     <dbl>     <dbl>    <dbl>    <dbl> <dbl>    <dbl>
##  1  2013     1     1         2        11     1400      227     9 370.0441
##  2  2013     1     1         4        20     1416      227    16 374.2731
##  3  2013     1     1         2        33     1089      160    31 408.3750
##  4  2013     1     1        -1       -18     1576      183   -17 516.7213
##  5  2013     1     1        -6       -25      762      116   -19 394.1379
##  6  2013     1     1        -4        12      719      150    16 287.6000
##  7  2013     1     1        -5        19     1065      158    24 404.4304
##  8  2013     1     1        -3       -14      229       53   -11 259.2453
##  9  2013     1     1        -3        -8      944      140    -5 404.5714
## 10  2013     1     1        -2         8      733      138    10 318.6957
## # ... with 336,766 more rows

#creates columns for gain and speed based off of our parameters

transmute(flights, gain = arr_delay - dep_delay, hours = air_time / 60, gain_per_hour = gain/hours )

## # A tibble: 336,776 x 3
##     gain     hours gain_per_hour
##    <dbl>     <dbl>         <dbl>
##  1     9 3.7833333      2.378855
##  2    16 3.7833333      4.229075
##  3    31 2.6666667     11.625000
##  4   -17 3.0500000     -5.573770
##  5   -19 1.9333333     -9.827586
##  6    16 2.5000000      6.400000
##  7    24 2.6333333      9.113924
##  8   -11 0.8833333    -12.452830
##  9    -5 2.3333333     -2.142857
## 10    10 2.3000000      4.347826
## # ... with 336,766 more rows
…
#finds rolling mean
min_rank(x)

##  [1]  1  2  3  4  5  6  7  8  9 10

#ranks from smallest to largest 

Some examples of using these commands in tandum

by_day <- group_by(flights, year, month, day)
#group by_day in flights by year, month, day
summarise(by_day, delay = mean(dep_delay, na.rm = TRUE))

## # A tibble: 365 x 4
## # Groups:   year, month [?]
##     year month   day     delay
##    <int> <int> <int>     <dbl>
##  1  2013     1     1 11.548926
##  2  2013     1     2 13.858824
##  3  2013     1     3 10.987832
##  4  2013     1     4  8.951595
##  5  2013     1     5  5.732218
##  6  2013     1     6  7.148014
##  7  2013     1     7  5.417204
##  8  2013     1     8  2.553073
##  9  2013     1     9  2.276477
## 10  2013     1    10  2.844995
## # ... with 355 more rows
…
